@startuml
left to right direction
skinparam packageStyle rect

actor hero
actor blacksmith

rectangle CleanShop {
  hero -- (view inventory)
  (view inventory) -- blacksmith
  hero -- (buy item)
  (buy item) -- blacksmith
  (buy item) .left-> (transfer gold) : include
  (buy item) .right-> (transfer item) : include
}
@enduml